<svg width="13" height="13" viewBox="0 0 13 13" fill="none" xmlns="http://www.w3.org/2000/svg">
<path d="M12.4191 9.66083L10.3244 7.5532C10.0076 7.23389 9.49162 7.23389 9.17394 7.55158L7.3125 9.41302L3.25 5.35052L5.11387 3.48664C5.43075 3.16977 5.43156 2.65545 5.11469 2.33777L3.01844 0.238266C2.70075 -0.0794219 2.18644 -0.0794219 1.86875 0.238266L0.00325 2.10295L0 2.10052C0 7.93427 4.72875 12.663 10.5625 12.663L12.4174 10.8081C12.7343 10.4912 12.7351 9.97852 12.4191 9.66083Z" fill="white"/>
</svg>
